{
    "file": "pflow-track-variables.json",
    "uchars": [
        "numberOfInnermostPixelLayerOutliers",
        "numberOfNextToInnermostPixelLayerOutliers",
	    "numberOfNextToInnermostPixelLayerSplitHits",
	    "numberOfNextToInnermostPixelLayerSharedHits",
        "numberOfPixelSpoiltHits",
	    "numberOfContribPixelLayers",
	    "numberOfContribPixelBarrelFlatLayers",
	    "numberOfContribPixelBarrelInclinedLayers",
	    "numberOfContribPixelEndcap",
	    "numberOfPixelBarrelFlatHits",
	    "numberOfPixelBarrelInclinedHits",
	    "numberOfPixelEndcapHits"
    ],
    "floats": [
        "phi"
    ]
}
